%YAML 1.1
%TAG !u! tag:unity3d.com,2011:
--- !u!162 &1
EditorUserSettings:
  m_ObjectHideFlags: 0
  serializedVersion: 4
  m_ConfigSettings:
    RecentlyUsedScenePath-0:
      value: 224247031146466e35413f21152d5a03592220072d262737283b2e30e7ee3176f7e93ffdfe
      flags: 0
    RecentlyUsedScenePath-1:
      value: 224247031146466b021c18231c306f11151c192d2967023520265326ece92021
      flags: 0
    RecentlyUsedScenePath-2:
      value: 22424703114646680e0b0227036c7e1e12051723281b273d3d251800e1e53a3dacf238e0f323
      flags: 0
    vcSharedLogLevel:
      value: 0d5e400f0650
      flags: 0
  m_VCAutomaticAdd: 1
  m_VCDebugCom: 0
  m_VCDebugCmd: 0
  m_VCDebugOut: 0
  m_SemanticMergeMode: 2
  m_VCShowFailedCheckout: 1
  m_VCOverwriteFailedCheckoutAssets: 1
  m_VCProjectOverlayIcons: 1
  m_VCHierarchyOverlayIcons: 1
  m_VCOtherOverlayIcons: 1
  m_VCAllowAsyncUpdate: 0
